Stroke Prediction Model – Stroke Prediction Models
…
Computational engine: ranger 

STEP TWO: TESTING DIFFERENT PARAMETERS

The reason I tune()-d the mtry and min_n parameters is because these might significantly influence the accuracy and dependability of our model. Now that we have all the required frameworks, we can test parameter values.

# Good mtry is sqrt(total vars) = sqrt(11) = 3
rfGrid <- expand.grid(mtry=2:6, min_n=c(1, 3, 5, 10, 15, 20, 30))
rfTuneResults <- rfWorkflow %>% tune_grid(resamples=dataCV, grid=rfGrid, 
    metrics=metric_set(accuracy, roc_auc))
rfTuneResults %>% collect_metrics()

# A tibble: 70 × 8
    mtry min_n .metric  .estimator  mean     n std_err .config              
   <int> <dbl> <chr>    <chr>      <dbl> <int>   <dbl> <chr>                
 1     2     1 accuracy binary     0.871    10 0.0113  Preprocessor1_Model01
 2     2     1 roc_auc  binary     0.924    10 0.00980 Preprocessor1_Model01
 3     3     1 accuracy binary     0.865    10 0.0120  Preprocessor1_Model02
 4     3     1 roc_auc  binary     0.922    10 0.0109  Preprocessor1_Model02
 5     4     1 accuracy binary     0.866    10 0.0134  Preprocessor1_Model03
 6     4     1 roc_auc  binary     0.920    10 0.0107  Preprocessor1_Model03
 7     5     1 accuracy binary     0.866    10 0.0144  Preprocessor1_Model04
 8     5     1 roc_auc  binary     0.917    10 0.0111  Preprocessor1_Model04
 9     6     1 accuracy binary     0.858    10 0.0155  Preprocessor1_Model05
10     6     1 roc_auc  binary     0.914    10 0.0112  Preprocessor1_Model05
# ℹ 60 more rows
…
Comparing mtry’s for each min_n, it seems like there is a small, weak negative correlation between mtry and model accuracy. However, min_n seems a lot more interesting. Let’s keep experimenting. So, let’s select the smallest mtry (2 and let’s try 1 as well) and try a larger range of min_n.

rfGrid2 <- expand.grid(mtry=1:2, min_n=c(1, 3, 5, seq(5, 50, 5)))
rfTuneResults2 <- rfWorkflow %>% tune_grid(resamples=dataCV, grid=rfGrid2, 
    metrics=metric_set(accuracy, roc_auc))

Warning: Duplicate rows in grid of tuning combinations found and removed.

rfTuneResults2 %>% collect_metrics() %>% filter(.metric=='accuracy') %>% 
    arrange(desc(mean))

# A tibble: 24 × 8
    mtry min_n .metric  .estimator  mean     n std_err .config              
   <int> <dbl> <chr>    <chr>      <dbl> <int>   <dbl> <chr>                
 1     2     5 accuracy binary     0.874    10  0.0118 Preprocessor1_Model06
 2     2    15 accuracy binary     0.874    10  0.0141 Preprocessor1_Model10
 3     2    10 accuracy binary     0.871    10  0.0132 Preprocessor1_Model08
 4     2    20 accuracy binary     0.871    10  0.0150 Preprocessor1_Model12
 5     2     3 accuracy binary     0.871    10  0.0129 Preprocessor1_Model04
 6     1     3 accuracy binary     0.869    10  0.0147 Preprocessor1_Model03
 7     2     1 accuracy binary     0.868    10  0.0142 Preprocessor1_Model02
 8     2    25 accuracy binary     0.868    10  0.0152 Preprocessor1_Model14
 9     1     5 accuracy binary     0.866    10  0.0139 Preprocessor1_Model05
10     1    10 accuracy binary     0.866    10  0.0135 Preprocessor1_Model07
# ℹ 14 more rows

rfTuneResults2 %>% collect_metrics() %>% filter(.metric=='roc_auc') %>% 
    arrange(desc(mean))

# A tibble: 24 × 8
    mtry min_n .metric .estimator  mean     n std_err .config              
   <int> <dbl> <chr>   <chr>      <dbl> <int>   <dbl> <chr>                
 1     2    50 roc_auc binary     0.929    10 0.00971 Preprocessor1_Model24
 2     2    40 roc_auc binary     0.928    10 0.0100  Preprocessor1_Model20
 3     2    20 roc_auc binary     0.927    10 0.00985 Preprocessor1_Model12
 4     2    45 roc_auc binary     0.927    10 0.0103  Preprocessor1_Model22
 5     2    35 roc_auc binary     0.927    10 0.0103  Preprocessor1_Model18
 6     2    30 roc_auc binary     0.927    10 0.0105  Preprocessor1_Model16
 7     1    10 roc_auc binary     0.927    10 0.0104  Preprocessor1_Model07
 8     1     5 roc_auc binary     0.926    10 0.0102  Preprocessor1_Model05
 9     1     3 roc_auc binary     0.926    10 0.0108  Preprocessor1_Model03
10     2    25 roc_auc binary     0.926    10 0.0103  Preprocessor1_Model14
# ℹ 14 more rows
…
